{
  "character": {
    "isValid": true,
    "summary": {
      "name": "Grey Skelly",
      "race": "Kalashtar",
      "class": "Warlock",
      "level": 1,
      "exp": "08",
      "alignment": "Lawful good",
      "party": "88"
    },
    "coreStats": {
      "str": "15",
      "dex": "8",
      "con": "10",
      "int": "12",
      "wis": "13",
      "cha": "14",
      "str_modifier": 2,
      "dex_modifier": -1,
      "con_modifier": 0,
      "int_modifier": 1,
      "cha_modifier": 2,
      "wis_modifier": 1
    },
    "otherStats": {
      "ac": "10",
      "hp_max": "15",
      "hp_tmp": 0,
      "hp_current": "15",
      "proficiencyBonus": "2",
      "passivePerception": "15",
      "initiative": 0,
      "speed": "30",
      "vision": "60"
    },
    "proficiencies": [
      "Quori"
    ],
    "inventory": [
      "2 heath potion",
      "1 flint & steel",
      "",
      "1 gold ingot (250 gp)",
      "",
      "25sp",
      "25gp"
    ],
    "weapons": [
      "mace"
    ],
    "features": [
      "Dual Mind",
      "Mind Link"
    ],
    "attacks": [
      "(invocations)",
      "devil's sight - passive",
      "misty vision (silent image) - no spells slot",
      "armor of shadows (mage armor) - no spell slot"
    ],
    "spells": [
      "Armor of Agathys  - +5 HP - (5 frost damage)",
      "Witch Bolt - 1d6 - lightning damage",
      "Hold Person - 1 minute, 60 ft, paralyze"
    ],
    "cantrips": [
      "mage hand - range 30ft, 10lb limit",
      "eldritch blast - 1d10 - 120ft - force"
    ]
  }
}
